%YAML 1.1
%TAG !u! tag:unity3d.com,2011:
--- !u!1001 &6357779101119476186
PrefabInstance:
  m_ObjectHideFlags: 0
  serializedVersion: 2
  m_Modification:
    serializedVersion: 3
    m_TransformParent: {fileID: 0}
    m_Modifications:
    - target: {fileID: 1809225290122252838, guid: d425c4016ca2e47429399f43417b8d31,
        type: 3}
      propertyPath: m_Name
      value: ContainerCounter_Bread
      objectReference: {fileID: 0}
    - target: {fileID: 4180600183676350979, guid: d425c4016ca2e47429399f43417b8d31,
        type: 3}
      propertyPath: m_LocalPosition.x
      value: 0
      objectReference: {fileID: 0}
    - target: {fileID: 4180600183676350979, guid: d425c4016ca2e47429399f43417b8d31,
        type: 3}
      propertyPath: m_LocalPosition.y
      value: 0
      objectReference: {fileID: 0}
    - target: {fileID: 4180600183676350979, guid: d425c4016ca2e47429399f43417b8d31,
        type: 3}
      propertyPath: m_LocalPosition.z
      value: 0
      objectReference: {fileID: 0}
    - target: {fileID: 4180600183676350979, guid: d425c4016ca2e47429399f43417b8d31,
        type: 3}
      propertyPath: m_LocalRotation.w
      value: 0.0000029653306
      objectReference: {fileID: 0}
    - target: {fileID: 4180600183676350979, guid: d425c4016ca2e47429399f43417b8d31,
        type: 3}
      propertyPath: m_LocalRotation.x
      value: -0
      objectReference: {fileID: 0}
    - target: {fileID: 4180600183676350979, guid: d425c4016ca2e47429399f43417b8d31,
        type: 3}
      propertyPath: m_LocalRotation.y
      value: -1
      objectReference: {fileID: 0}
    - target: {fileID: 4180600183676350979, guid: d425c4016ca2e47429399f43417b8d31,
        type: 3}
      propertyPath: m_LocalRotation.z
      value: -0
      objectReference: {fileID: 0}
    - target: {fileID: 4180600183676350979, guid: d425c4016ca2e47429399f43417b8d31,
        type: 3}
      propertyPath: m_LocalEulerAnglesHint.x
      value: 0
      objectReference: {fileID: 0}
    - target: {fileID: 4180600183676350979, guid: d425c4016ca2e47429399f43417b8d31,
        type: 3}
      propertyPath: m_LocalEulerAnglesHint.y
      value: -180
      objectReference: {fileID: 0}
    - target: {fileID: 4180600183676350979, guid: d425c4016ca2e47429399f43417b8d31,
        type: 3}
      propertyPath: m_LocalEulerAnglesHint.z
      value: 0
      objectReference: {fileID: 0}
    - target: {fileID: 6238724534110290732, guid: d425c4016ca2e47429399f43417b8d31,
        type: 3}
      propertyPath: kitchenObjectSO
      value: 
      objectReference: {fileID: 11400000, guid: 4cb6ee4988abda64a99cb932fd3c9164,
        type: 2}
    - target: {fileID: 8515958284019256382, guid: d425c4016ca2e47429399f43417b8d31,
        type: 3}
      propertyPath: m_Sprite
      value: 
      objectReference: {fileID: 21300000, guid: 77b28124b8bda494381c80bd5aa42c22,
        type: 3}
    m_RemovedComponents: []
    m_RemovedGameObjects: []
    m_AddedGameObjects: []
    m_AddedComponents: []
  m_SourcePrefab: {fileID: 100100000, guid: d425c4016ca2e47429399f43417b8d31, type: 3}
