%YAML 1.1
%TAG !u! tag:unity3d.com,2011:
--- !u!114 &11400000
MonoBehaviour:
  m_ObjectHideFlags: 0
  m_CorrespondingSourceObject: {fileID: 0}
  m_PrefabInstance: {fileID: 0}
  m_PrefabAsset: {fileID: 0}
  m_GameObject: {fileID: 0}
  m_Enabled: 1
  m_EditorHideFlags: 0
  m_Script: {fileID: 11500000, guid: 03edd446715c57049b42f5d16809e247, type: 3}
  m_Name: MeatCooked-MeatBurned
  m_EditorClassIdentifier: 
  input: {fileID: 11400000, guid: 5a39fcb2e34367e41b693809afb2ec93, type: 2}
  output: {fileID: 11400000, guid: 73d0e155923a5e648ba46292260e02ed, type: 2}
  burningTimerMax: 5
